v 20130925 2
C 69600 54400 1 0 0 ATmega644_1.sym
{
T 70800 58900 5 10 1 1 0 0 1
refdes=U1
T 72826 58300 5 10 0 0 0 0 1
footprint=DIP40_1
T 71300 54500 5 10 1 1 0 5 1
device=ATmega644/16
}
C 87100 56500 1 0 0 pololustepper-1.sym
{
T 89000 58200 5 10 0 0 0 0 1
device=POLOLUSTEPPER
T 87900 58600 5 10 1 1 0 0 1
refdes=U3
T 89026 58000 5 10 0 0 0 0 1
footprint=POLOLUSTEPPER-1
}
C 83600 58100 1 0 0 5V-plus-1.sym
C 84000 57800 1 0 0 resistor-1.sym
{
T 84300 58200 5 10 0 0 0 0 1
device=RESISTOR
T 84200 58100 5 10 1 1 0 0 1
refdes=R4
T 84200 57600 5 10 1 1 0 0 1
value=1K
T 84000 57800 5 10 0 1 0 0 1
footprint=ACY300_1
}
N 83800 57900 84000 57900 4
N 87100 57100 86900 57100 4
C 89100 56200 1 0 0 gnd-1.sym
C 90700 58600 1 180 0 gnd-1.sym
C 90800 56500 1 180 0 5V-plus-1.sym
C 89000 58700 1 0 0 12V-plus-1.sym
N 89200 58100 89200 58700 4
N 90600 58300 90600 57900 4
N 90600 57900 88900 57900 4
N 90600 56900 90600 56500 4
N 89200 56500 89200 56700 4
C 87100 53300 1 0 0 pololustepper-1.sym
{
T 89000 55000 5 10 0 0 0 0 1
device=POLOLUSTEPPER
T 87900 55400 5 10 1 1 0 0 1
refdes=U2
T 89026 54800 5 10 0 0 0 0 1
footprint=POLOLUSTEPPER-1
}
C 83600 54900 1 0 0 5V-plus-1.sym
C 84000 54600 1 0 0 resistor-1.sym
{
T 84300 55000 5 10 0 0 0 0 1
device=RESISTOR
T 84200 54900 5 10 1 1 0 0 1
refdes=R6
T 84200 54400 5 10 1 1 0 0 1
value=1K
T 84000 54600 5 10 0 1 0 0 1
footprint=ACY300_1
}
N 85100 54300 85300 54300 4
N 85100 54500 85300 54500 4
N 83800 54700 84000 54700 4
N 86900 54100 87100 54100 4
N 87100 53900 86900 53900 4
N 85100 54300 85100 54700 4
C 67900 42900 1 0 0 resistor-1.sym
{
T 68200 43300 5 10 0 0 0 0 1
device=RESISTOR
T 68100 43200 5 10 1 1 0 0 1
refdes=R11
T 68100 42700 5 10 1 1 0 0 1
value=10R
T 67900 42900 5 10 0 1 0 0 1
footprint=ACY300_1
}
C 67900 46600 1 0 0 resistor-1.sym
{
T 68200 47000 5 10 0 0 0 0 1
device=RESISTOR
T 68100 46900 5 10 1 1 0 0 1
refdes=R12
T 68100 46400 5 10 1 1 0 0 1
value=10R
T 67900 46600 5 10 0 1 0 0 1
footprint=ACY300_1
}
C 63200 47500 1 0 0 led-1.sym
{
T 64000 47900 5 10 1 1 0 0 1
refdes=LED2
T 63200 47500 5 10 0 1 0 0 1
footprint=LED3_1
T 64000 48700 5 10 0 0 0 0 1
value=green
T 64000 48300 5 10 0 0 0 0 1
symversion=0.1
}
C 61700 47600 1 0 0 resistor-1.sym
{
T 62000 48000 5 10 0 1 0 0 1
device=RESISTOR
T 61900 47900 5 10 1 1 0 0 1
refdes=R14
T 61900 47500 5 10 1 1 0 0 1
value=560R
T 61700 47600 5 10 0 0 0 0 1
footprint=ACY300_1
}
C 67600 45400 1 0 0 gnd-1.sym
N 63200 47700 62600 47700 4
N 61100 47700 61100 48900 4
N 72600 56900 87100 56900 4
N 72600 56600 83200 56600 4
N 87100 53700 82900 53700 4
N 82600 53500 87100 53500 4
N 68900 46700 68900 55400 4
C 95600 64100 1 0 0 gnd-1.sym
N 95700 64400 95700 65800 4
C 96500 69200 1 0 0 5V-plus-1.sym
{
T 96900 69400 5 10 1 1 0 0 1
description=logic supply
}
N 69200 43000 69200 55100 4
C 67500 55700 1 180 0 crystal-1.sym
{
T 67300 55400 5 10 1 1 180 0 1
refdes=U6
T 67500 55900 5 10 1 1 180 0 1
value=20 MHz
T 67500 55700 5 10 0 1 0 0 1
footprint=CRYSTAL_AS
T 67300 55000 5 10 0 0 180 0 1
symversion=0.1
}
C 66600 55000 1 270 0 capacitor-1.sym
{
T 67300 54800 5 10 0 0 270 0 1
device=CAPACITOR
T 66400 54200 5 10 1 1 270 0 1
refdes=C3
T 67500 54800 5 10 0 0 270 0 1
symversion=0.1
T 66400 54800 5 10 1 1 270 0 1
value=22 pF
T 66600 55000 5 10 0 1 0 0 1
footprint=ACY100_1
}
C 67300 55000 1 270 0 capacitor-1.sym
{
T 68000 54800 5 10 0 0 270 0 1
device=CAPACITOR
T 68000 54100 5 10 1 1 90 0 1
refdes=C4
T 68200 54800 5 10 0 0 270 0 1
symversion=0.1
T 67800 54900 5 10 1 1 270 0 1
value=22 pF
T 67300 55000 5 10 0 1 0 0 1
footprint=ACY100_1
}
C 67400 53100 1 0 0 gnd-1.sym
N 67500 53400 67500 54100 4
N 66800 54100 66800 53700 4
N 67500 53700 66800 53700 4
C 69400 57600 1 270 0 gnd-1.sym
C 58200 59700 1 90 0 capacitor-1.sym
{
T 57500 59900 5 10 0 0 90 0 1
device=CAPACITOR
T 57700 59800 5 10 1 1 90 0 1
refdes=C21
T 57300 59900 5 10 0 0 90 0 1
symversion=0.1
T 58200 59700 5 10 0 1 0 0 1
footprint=ACY100_1
T 57700 60300 5 10 1 1 90 0 1
value=0.1 uF
}
C 48600 67000 1 180 0 gnd-1.sym
N 48500 66300 48500 66700 4
N 96700 66800 96700 69200 4
C 95500 66700 1 270 0 led-1.sym
{
T 95900 65900 5 10 1 1 270 0 1
refdes=LED4
T 95500 66700 5 10 0 1 0 0 1
footprint=LED3_1
T 96100 65900 5 10 0 0 270 0 1
value=green
T 96300 65900 5 10 0 0 270 0 1
symversion=0.1
}
C 95600 68200 1 270 0 resistor-1.sym
{
T 96000 67900 5 10 0 0 270 0 1
device=RESISTOR
T 95900 68000 5 10 1 1 270 0 1
refdes=R18
T 95400 68000 5 10 1 1 270 0 1
value=1K
T 95600 68200 5 10 0 1 0 0 1
footprint=ACY300_1
}
N 95700 66700 95700 67300 4
N 95700 68200 95700 68700 4
N 94500 68700 96700 68700 4
N 96700 64900 96700 65900 4
N 95700 64900 96700 64900 4
N 55000 56600 55000 61800 4
N 58400 56300 58400 62200 4
C 90700 55400 1 180 0 gnd-1.sym
C 89000 55500 1 0 0 12V-plus-1.sym
{
T 89300 55500 5 8 1 1 0 0 1
net=Vmot:1
}
N 89200 54900 89200 55500 4
N 90600 55100 90600 54700 4
N 90600 54700 88900 54700 4
C 89500 54700 1 0 0 capacitor-1.sym
{
T 89700 55400 5 10 0 0 0 0 1
device=CAPACITOR
T 89700 55200 5 10 1 1 0 0 1
refdes=C8
T 89700 55600 5 10 0 0 0 0 1
symversion=0.1
T 89700 54500 5 10 1 1 0 0 1
value=0.1 uF
T 89500 54700 5 10 0 1 0 0 1
footprint=ACY100_1
}
N 85100 57500 85100 57900 4
C 89500 56500 1 0 0 capacitor-1.sym
{
T 89700 57200 5 10 0 0 0 0 1
device=CAPACITOR
T 89700 57000 5 10 1 1 0 0 1
refdes=C11
T 89700 57400 5 10 0 0 0 0 1
symversion=0.1
T 89700 56300 5 10 1 1 0 0 1
value=0.1 uF
T 89500 56500 5 10 0 1 0 0 1
footprint=ACY100_1
}
N 90600 56900 88900 56900 4
N 88900 56700 89500 56700 4
N 90400 56700 90600 56700 4
C 89100 53000 1 0 0 gnd-1.sym
C 90800 53300 1 180 0 5V-plus-1.sym
N 90600 53700 90600 53300 4
N 89200 53300 89200 53500 4
C 89500 53300 1 0 0 capacitor-1.sym
{
T 89700 54000 5 10 0 0 0 0 1
device=CAPACITOR
T 89700 53800 5 10 1 1 0 0 1
refdes=C12
T 89700 54200 5 10 0 0 0 0 1
symversion=0.1
T 89700 53100 5 10 1 1 0 0 1
value=0.1 uF
T 89500 53300 5 10 0 1 0 0 1
footprint=ACY100_1
}
N 90600 53700 88900 53700 4
N 88900 53500 89500 53500 4
N 90400 53500 90600 53500 4
N 68800 46700 68900 46700 4
N 68800 43000 69200 43000 4
N 48100 58400 48100 64900 4
N 48500 59300 48500 64900 4
N 47700 58700 47700 64900 4
N 46700 59000 70000 59000 4
N 46700 59000 46700 66900 4
N 47100 61000 47100 66500 4
N 58000 59300 58000 59700 4
N 66800 55000 66800 57200 4
N 67500 55000 67500 56900 4
C 75000 68800 1 270 0 connector3-1.sym
{
T 75100 68900 5 10 1 1 0 0 1
refdes=SWITCH_1
T 75000 68800 5 10 0 1 0 0 1
footprint=100-3-1
}
C 76200 68800 1 270 0 connector3-1.sym
{
T 76300 68900 5 10 1 1 0 0 1
refdes=SWITCH_2
T 76200 68800 5 10 0 1 0 0 1
footprint=100-3-1
}
C 79100 68800 1 270 0 connector3-1.sym
{
T 79200 68900 5 10 1 1 0 0 1
refdes=ENCODER
T 79100 68800 5 10 0 1 0 0 1
footprint=100-3-1
}
N 75800 58700 75800 67100 4
N 77000 59000 77000 67100 4
N 79900 54000 79900 67100 4
C 73000 65700 1 0 0 resistor-1.sym
{
T 73300 66100 5 10 0 0 0 0 1
device=RESISTOR
T 73100 66000 5 10 1 1 0 0 1
refdes=RT1
T 73600 66000 5 10 1 1 0 0 1
value=4K7
T 73000 65700 5 10 0 1 90 0 1
footprint=ACY300_1
}
C 74800 64300 1 0 0 gnd-1.sym
N 74900 64900 74900 64600 4
C 63200 43800 1 0 0 led-1.sym
{
T 64000 44200 5 10 1 1 0 0 1
refdes=LED5
T 63200 43800 5 10 0 1 0 0 1
footprint=LED3_1
T 64000 45000 5 10 0 0 0 0 1
value=green
T 64000 44600 5 10 0 0 0 0 1
symversion=0.1
}
C 61700 43900 1 0 0 resistor-1.sym
{
T 62000 44300 5 10 0 0 0 0 1
device=RESISTOR
T 61900 44200 5 10 1 1 0 0 1
refdes=R22
T 61900 43800 5 10 1 1 0 0 1
value=560R
T 61700 43900 5 10 0 1 0 0 1
footprint=ACY300_1
}
C 67600 41700 1 0 0 gnd-1.sym
N 63200 44000 62600 44000 4
N 61100 44000 61100 45000 4
C 92000 55200 1 270 1 connector4-1.sym
{
T 93000 55000 5 10 1 1 0 6 1
refdes=SPOOL_MOT
T 92000 55200 5 10 0 1 90 6 1
footprint=100-4-1
}
N 88900 57700 92200 57700 4
N 88900 57100 93100 57100 4
N 88900 57300 92800 57300 4
N 88900 57500 92500 57500 4
C 92000 52000 1 270 1 connector4-1.sym
{
T 93000 51800 5 10 1 1 0 6 1
refdes=GUIDE_MOT
T 92000 52000 5 10 0 1 90 6 1
footprint=100-4-1
}
N 88900 54500 92200 54500 4
N 88900 54300 92500 54300 4
N 88900 54100 92800 54100 4
N 88900 53900 93100 53900 4
N 84900 57900 87100 57900 4
C 86300 57600 1 90 0 jumper-1.sym
{
T 85800 57900 5 10 1 1 90 0 1
refdes=J2
T 86300 57600 5 10 0 1 0 0 1
footprint=JUMPER2_1
T 86300 57600 5 10 0 0 0 0 1
device=JUMPER
}
C 86300 57400 1 90 0 jumper-1.sym
{
T 85800 57700 5 10 1 1 90 0 1
refdes=J3
T 86300 57400 5 10 0 1 0 0 1
footprint=JUMPER2_1
}
N 86300 57700 87100 57700 4
N 86300 57500 87100 57500 4
N 85100 57500 85300 57500 4
N 85100 57700 85300 57700 4
C 86300 54400 1 90 0 jumper-1.sym
{
T 85800 54700 5 10 1 1 90 0 1
refdes=J5
T 86300 54400 5 10 0 1 0 0 1
footprint=JUMPER2_1
}
C 86300 54200 1 90 0 jumper-1.sym
{
T 85800 54500 5 10 1 1 90 0 1
refdes=J6
T 86300 54200 5 10 0 1 0 0 1
footprint=JUMPER2_1
}
N 86300 54500 87100 54500 4
N 86300 54300 87100 54300 4
N 84900 54700 87100 54700 4
N 88900 58100 89500 58100 4
N 88900 54900 89500 54900 4
N 90400 54900 90600 54900 4
N 73900 65800 74900 65800 4
N 74100 65800 74100 58400 4
N 64100 47700 67700 47700 4
N 64100 44000 67700 44000 4
C 65800 45900 1 0 0 connector3-1.sym
{
T 65800 47000 5 10 1 1 0 0 1
refdes=Q2
T 65800 45900 5 10 0 0 180 0 1
footprint=TO220-3N
T 65800 45700 5 10 1 1 0 0 1
value=IRLB 8743
}
N 67900 46700 67500 46700 4
N 67700 47700 67700 46400 4
N 67700 46400 67500 46400 4
C 65800 42200 1 0 0 connector3-1.sym
{
T 65800 43300 5 10 1 1 0 0 1
refdes=Q1
T 65800 42200 5 10 0 0 180 0 1
footprint=TO220-3N
T 65800 42000 5 10 1 1 0 0 1
value=IRLB 8743
}
N 67900 43000 67500 43000 4
N 67500 42700 67700 42700 4
N 67700 42700 67700 44000 4
C 96500 66800 1 270 0 capacitor-2.sym
{
T 97200 66600 5 10 0 0 270 0 1
device=POLARIZED_CAPACITOR
T 97000 66600 5 10 1 1 270 0 1
refdes=C6
T 97400 66600 5 10 0 0 270 0 1
symversion=0.1
T 96500 66800 5 10 0 0 0 0 1
footprint=RCY3mm5
T 96300 66600 5 10 1 1 270 0 1
value=100 uF
}
C 74700 65800 1 270 0 capacitor-2.sym
{
T 75400 65600 5 10 0 0 270 0 1
device=POLARIZED_CAPACITOR
T 75200 65600 5 10 1 1 270 0 1
refdes=CT1
T 75600 65600 5 10 0 0 270 0 1
symversion=0.1
T 74700 65800 5 10 0 0 0 0 1
footprint=RCY2mm
T 74700 65200 5 10 1 1 270 0 1
value=10 uF
}
N 60600 43700 65500 43700 4
N 60600 47400 65500 47400 4
C 75400 66500 1 0 0 gnd-1.sym
N 75500 67100 75500 66800 4
C 75400 66800 1 180 0 5V-plus-1.sym
N 75200 67100 75200 66800 4
C 76600 66500 1 0 0 gnd-1.sym
N 76700 67100 76700 66800 4
C 76600 66800 1 180 0 5V-plus-1.sym
N 76400 67100 76400 66800 4
C 79500 65100 1 0 0 gnd-1.sym
N 79600 67100 79600 65400 4
C 79500 65400 1 180 0 5V-plus-1.sym
N 79300 66200 79300 65400 4
C 73700 66800 1 0 0 gnd-1.sym
C 65800 55000 1 90 0 switch-pushbutton-no-1.sym
{
T 65400 55200 5 10 1 1 90 0 1
refdes=RESET
T 65200 55400 5 10 0 0 90 0 1
device=SWITCH_PUSHBUTTON_NO
T 65800 55000 5 10 0 1 0 0 1
footprint=MJTP1230-1
}
C 65900 59800 1 90 0 resistor-1.sym
{
T 65500 60100 5 10 0 0 90 0 1
device=RESISTOR
T 65600 60000 5 10 1 1 90 0 1
refdes=R30
T 66100 60000 5 10 1 1 90 0 1
value=10K
T 65900 59800 5 10 0 1 0 0 1
footprint=ACY300_1
}
C 65700 53100 1 0 0 gnd-1.sym
N 65800 60700 65800 61300 4
N 65800 56000 65800 59800 4
N 65800 53400 65800 55000 4
N 62400 44800 61100 44800 4
N 63300 44800 65500 44800 4
N 65500 44800 65500 44000 4
N 62400 48500 61100 48500 4
N 63300 48500 65500 48500 4
N 65500 48500 65500 47700 4
N 65500 43700 65500 44000 4
N 67700 42400 67700 42000 4
N 65500 47400 65500 47700 4
N 67700 45700 67700 46100 4
C 48900 63500 1 90 0 ICSP-1.sym
{
T 47450 65600 5 10 1 1 90 3 1
refdes=CONN6
T 47250 65600 5 10 0 0 90 3 1
footprint=ICSP_HEADER
T 48750 65600 5 10 1 1 90 5 1
device=ICSP
}
N 47100 66500 47700 66500 4
N 47700 66500 47700 66300 4
N 46700 66900 48100 66900 4
N 48100 66900 48100 66300 4
N 87100 57300 86900 57300 4
N 86900 57300 86900 57100 4
N 86900 54100 86900 53900 4
C 62400 48300 1 0 0 diode-3.sym
{
T 62850 48850 5 10 0 0 0 0 1
device=DIODE
T 62750 48750 5 10 1 1 0 0 1
refdes=D2
T 62500 48200 5 10 1 1 0 0 1
value=1N4004
T 62400 48300 5 10 0 1 0 0 1
footprint=DIODE_LAY 300
}
C 62400 44600 1 0 0 diode-3.sym
{
T 62850 45150 5 10 0 0 0 0 1
device=DIODE
T 62750 45050 5 10 1 1 0 0 1
refdes=D1
T 62500 44500 5 10 1 1 0 0 1
value=1N4004
T 62400 44600 5 10 0 1 0 0 1
footprint=DIODE_LAY 300
}
C 65000 58000 1 180 0 capacitor-1.sym
{
T 64800 57300 5 10 0 0 180 0 1
device=CAPACITOR
T 64700 57500 5 10 1 1 180 0 1
refdes=C14
T 64800 57100 5 10 0 0 180 0 1
symversion=0.1
T 64800 58200 5 10 1 1 180 0 1
value=0.1 uF
T 65000 58000 5 10 0 1 90 0 1
footprint=ACY100_1
}
C 63400 57500 1 0 0 gnd-1.sym
N 90400 58100 90600 58100 4
C 89500 57900 1 0 0 capacitor-1.sym
{
T 89700 58600 5 10 0 0 0 0 1
device=CAPACITOR
T 89700 58400 5 10 1 1 0 0 1
refdes=C16
T 89700 58800 5 10 0 0 0 0 1
symversion=0.1
T 89700 57700 5 10 1 1 0 0 1
value=0.1 uF
T 89500 57900 5 10 0 1 0 0 1
footprint=ACY100_1
}
N 60600 47700 61700 47700 4
N 60600 44000 61700 44000 4
C 76100 58300 1 180 0 capacitor-1.sym
{
T 75900 57600 5 10 0 0 180 0 1
device=CAPACITOR
T 75900 57800 5 10 1 1 180 0 1
refdes=C18
T 75900 57400 5 10 0 0 180 0 1
symversion=0.1
T 75900 58500 5 10 1 1 180 0 1
value=0.1 uF
T 76100 58300 5 10 0 1 270 0 1
footprint=ACY100_1
}
C 76300 57600 1 0 0 gnd-1.sym
C 70800 65800 1 0 0 coil-1.sym
{
T 71000 66200 5 10 0 0 0 0 1
device=COIL
T 71000 66000 5 10 1 1 0 0 1
refdes=L1
T 71000 66400 5 10 0 0 0 0 1
symversion=0.1
T 71000 65500 5 10 1 1 0 0 1
value=10 uH
T 70800 65800 5 10 0 1 0 0 1
footprint=ACY500_1
}
C 72100 65600 1 270 0 capacitor-1.sym
{
T 72800 65400 5 10 0 0 270 0 1
device=CAPACITOR
T 72600 65400 5 10 1 1 270 0 1
refdes=C19
T 73000 65400 5 10 0 0 270 0 1
symversion=0.1
T 71900 65400 5 10 1 1 270 0 1
value=0.1 uF
T 72100 65600 5 10 0 1 0 0 1
footprint=ACY100_1
}
C 72200 64300 1 0 0 gnd-1.sym
N 71800 65800 73000 65800 4
N 72300 64700 72300 64600 4
T 70200 66700 9 10 1 0 0 0 1

N 87100 58100 86600 58100 4
N 87100 54900 86600 54900 4
N 72600 57200 86600 57200 4
N 67700 46100 67500 46100 4
N 67700 42400 67500 42400 4
C 58900 47200 1 0 0 connector2-1.sym
{
T 58900 48000 5 10 1 1 0 0 1
refdes=PWR_OUT1
T 58900 47200 5 10 0 0 0 0 1
footprint=100-2-1
}
C 58900 43500 1 0 0 connector2-1.sym
{
T 58900 44300 5 10 1 1 0 0 1
refdes=PWR_OUT2
T 58900 43500 5 10 0 0 0 0 1
footprint=100-2-1
}
C 74300 68800 1 90 1 connector2-1.sym
{
T 74400 68900 5 10 1 1 0 6 1
refdes=ANALOG_IN
T 74300 68800 5 10 0 0 0 6 1
footprint=100-2-1
}
T 84600 40600 9 24 1 0 0 1 4
(c) 2016 markol
(c) 2011 - 2012 Traumflug
(c) 2010 Traumflug, Jacky2k
Creative Commons BY-NC-SA 3.0 Licence
N 92200 57700 92200 56900 4
N 92500 57500 92500 56900 4
N 92800 57300 92800 56900 4
N 93100 57100 93100 56900 4
N 92200 54500 92200 53700 4
N 92500 54300 92500 53700 4
N 92800 54100 92800 53700 4
N 93100 53900 93100 53700 4
C 65600 61300 1 0 0 5V-plus-1.sym
{
T 65900 61300 5 8 1 1 0 0 1
net=+5VSB:1
}
C 69800 66100 1 0 0 5V-plus-1.sym
{
T 70100 66100 5 8 1 1 0 0 1
net=+5VSB:1
}
N 70000 66100 70000 65800 4
N 70000 65800 70800 65800 4
N 83800 57900 83800 58100 4
N 83800 54700 83800 54900 4
N 72300 65600 72300 65800 4
C 58000 66100 1 0 0 gnd-1.sym
N 58100 66600 58100 66400 4
N 57100 67700 57100 67900 4
N 58400 65000 58400 66600 4
N 52200 65200 52200 63400 4
C 57900 65100 1 0 0 gnd-1.sym
N 57800 65400 58000 65400 4
C 57300 68800 1 270 0 USB.sym
{
T 57800 68200 5 10 1 1 90 0 1
value=USB_B
T 57300 68800 5 10 0 0 270 0 1
footprint=USB_B
T 57800 67100 5 10 1 1 90 0 1
refdes=CONN5
}
C 57000 67400 1 0 0 gnd-1.sym
N 57100 67900 57300 67900 4
C 54600 61300 1 0 0 MCP2200.sym
{
T 56500 65800 5 10 1 1 0 3 1
refdes=U4
T 56501 66000 5 10 0 0 0 3 1
footprint=SO20_1
T 56000 61300 5 10 1 1 0 0 1
value=MCP2200
}
C 51400 65100 1 180 0 crystal-1.sym
{
T 51200 64800 5 10 1 1 180 0 1
refdes=U7
T 51400 65300 5 10 1 1 180 0 1
value=12 MHz
T 51400 65100 5 10 0 1 0 0 1
footprint=CRYSTAL_AS
T 51200 64400 5 10 0 0 180 0 1
symversion=0.1
}
C 50700 63400 1 90 0 capacitor-1.sym
{
T 50400 63500 5 10 1 1 90 0 1
refdes=C5
T 49800 63600 5 10 0 0 90 0 1
symversion=0.1
T 50900 63600 5 10 1 1 90 0 1
value=22 pF
T 50700 63400 5 10 0 1 180 0 1
footprint=ACY100_1
}
C 51800 63400 1 90 0 capacitor-1.sym
{
T 51500 63400 5 10 1 1 90 0 1
refdes=C15
T 50900 63600 5 10 0 0 90 0 1
symversion=0.1
T 52000 63600 5 10 1 1 90 0 1
value=22 pF
T 51800 63400 5 10 0 1 180 0 1
footprint=ACY100_1
}
C 51500 62600 1 0 0 gnd-1.sym
N 51600 62900 51600 63400 4
N 50500 63400 50500 62900 4
N 50500 64300 50500 65000 4
N 51600 64300 51600 65000 4
C 53200 63600 1 0 0 led-1.sym
{
T 53400 63700 5 10 1 1 180 0 1
refdes=TxLED
T 53200 63600 5 10 0 1 90 0 1
footprint=LED3_1
T 54000 64200 5 10 0 0 0 0 1
value=green
T 54000 64400 5 10 0 0 0 0 1
symversion=0.1
}
C 52300 65200 1 90 0 resistor-1.sym
{
T 52000 65400 5 10 1 1 90 0 1
refdes=R1
T 52500 65400 5 10 1 1 90 0 1
value=1K
T 52300 65200 5 10 0 1 180 0 1
footprint=ACY300_1
}
C 53900 63200 1 0 0 led-1.sym
{
T 54100 63300 5 10 1 1 180 0 1
refdes=RxLED
T 53900 63200 5 10 0 1 90 0 1
footprint=LED3_1
T 54700 63800 5 10 0 0 0 0 1
value=green
T 54700 64000 5 10 0 0 0 0 1
symversion=0.1
}
C 53100 65200 1 90 0 resistor-1.sym
{
T 52800 65400 5 10 1 1 90 0 1
refdes=R2
T 53300 65400 5 10 1 1 90 0 1
value=1K
T 53100 65200 5 10 0 1 180 0 1
footprint=ACY300_1
}
N 54800 63400 55200 63400 4
N 53000 63800 53000 65200 4
N 52200 66100 52200 66300 4
N 53000 66100 53000 66300 4
N 53900 63400 52200 63400 4
N 54100 63800 55200 63800 4
N 51400 65000 55200 65000 4
N 50500 64600 55200 64600 4
N 50700 65000 50500 65000 4
C 50400 62600 1 0 0 gnd-1.sym
N 58700 64600 58700 66600 4
N 58700 64600 57800 64600 4
N 58400 65000 57800 65000 4
N 55000 66300 55000 65400 4
N 55000 65400 55200 65400 4
N 55200 61800 55000 61800 4
N 57800 62200 58400 62200 4
C 54300 65200 1 90 0 resistor-1.sym
{
T 54000 65400 5 10 1 1 90 0 1
refdes=R3
T 54500 65400 5 10 1 1 90 0 1
value=10K
T 54300 65200 5 10 0 1 180 0 1
footprint=ACY300_1
}
N 54200 64200 55200 64200 4
N 54200 64200 54200 65200 4
N 54200 66100 54200 66300 4
C 58200 64000 1 0 0 capacitor-1.sym
{
T 58200 64300 5 10 1 1 0 0 1
refdes=C20
T 58400 64900 5 10 0 0 0 0 1
symversion=0.1
T 58400 63800 5 10 1 1 0 0 1
value=0.1 uF
T 58200 64000 5 10 0 1 0 0 1
footprint=ACY100_1
}
N 57800 64200 58200 64200 4
C 59400 63700 1 0 0 gnd-1.sym
N 59100 64200 59500 64200 4
N 59500 64200 59500 64000 4
N 58000 61800 57800 61800 4
C 57900 62300 1 0 0 gnd-1.sym
N 57800 62600 58000 62600 4
N 53200 63800 53000 63800 4
T 58800 64300 9 6 1 0 0 0 2
0.22 to 0.47 uF recomm.
according to data sheet
C 52000 66300 1 0 0 5V-plus-1.sym
C 52800 66300 1 0 0 5V-plus-1.sym
C 54000 66300 1 0 0 5V-plus-1.sym
C 54800 66300 1 0 0 5V-plus-1.sym
N 58000 60600 58000 61800 4
B 46500 55500 14300 14900 3 0 0 0 -1 -1 0 -1 -1 -1 -1 -1
T 46600 69000 9 10 1 0 0 0 1
UART Circuit
C 92900 68100 1 0 0 lm7805-1.sym
{
T 94500 69400 5 10 0 0 0 0 1
device=7805
T 94300 69100 5 10 1 1 0 6 1
refdes=U5
T 92900 68100 5 10 1 1 0 0 1
footprint=TO220-3N
}
C 89700 68300 1 0 0 12V-plus-1.sym
C 91500 68600 1 180 0 gnd-1.sym
C 91700 69200 1 0 0 12V-plus-1.sym
N 91900 68700 91900 69200 4
C 90200 68100 1 180 1 capacitor-2.sym
{
T 90400 67400 5 10 0 0 180 6 1
device=POLARIZED_CAPACITOR
T 90400 67600 5 10 1 1 180 6 1
refdes=C1
T 90400 67200 5 10 0 0 180 6 1
symversion=0.1
T 90200 68100 5 10 0 0 270 2 1
footprint=RCY3mm5
T 90400 68300 5 10 1 1 180 6 1
value=100 uF
}
N 89900 68300 89900 67200 4
N 91400 67200 91400 68300 4
N 90500 67200 89900 67200 4
N 90800 67200 91400 67200 4
N 91100 67900 91400 67900 4
N 90200 67900 89900 67900 4
N 93700 64900 93700 68100 4
N 93700 64900 95700 64900 4
C 60500 67000 1 180 0 jumper-1.sym
{
T 60200 66500 5 8 0 0 180 0 1
device=JUMPER
T 60200 66500 5 10 1 1 180 0 1
refdes=J1
T 59200 66600 5 10 1 1 0 0 1
footprint=JUMPER2_1
}
C 60200 67000 1 0 0 5V-plus-1.sym
N 59000 66600 59000 66000 4
N 59000 66000 60400 66000 4
T 59600 65800 9 6 1 0 0 0 1
Settings for +5V USB source
C 79400 66200 1 90 0 resistor-1.sym
{
T 79000 66500 5 10 0 0 90 0 1
device=RESISTOR
T 79100 66500 5 10 1 1 90 0 1
refdes=R23
T 79500 66500 5 10 1 1 90 0 1
value=2K2
T 79400 66200 5 10 1 1 0 0 1
footprint=ACY300_1
}
C 79000 64000 1 0 0 resistor-1.sym
{
T 79300 64400 5 10 0 0 0 0 1
device=RESISTOR
T 79200 64300 5 10 1 1 0 0 1
refdes=R24
T 79300 63800 5 10 1 1 0 0 1
value=2K2
T 79000 64000 5 10 1 1 0 0 1
footprint=ACY300_1
}
C 79900 65800 1 0 0 led-1.sym
{
T 80700 66400 5 10 0 0 0 0 1
device=LED
T 80100 65500 5 10 1 1 0 0 1
refdes=PULSE_LED
T 80700 66600 5 10 0 0 0 0 1
symversion=0.1
T 79900 65800 5 10 0 1 0 0 1
footprint=LED3_1
}
C 81100 65900 1 0 0 resistor-1.sym
{
T 81400 66300 5 10 0 0 0 0 1
device=RESISTOR
T 81400 66200 5 10 1 1 0 0 1
refdes=R25
T 81400 65700 5 10 1 1 0 0 1
value=2K2
T 81100 65900 5 10 1 1 0 0 1
footprint=ACY300_1
}
C 82200 65600 1 0 0 gnd-1.sym
N 80800 66000 81100 66000 4
N 82000 66000 82300 66000 4
N 82300 66000 82300 65900 4
N 79000 64100 78900 64100 4
N 78900 64100 78900 66000 4
N 78900 66000 79300 66000 4
B 89400 63800 11200 6100 3 0 0 0 -1 -1 0 -1 -1 -1 -1 -1
T 89600 69600 9 10 1 0 0 0 1
Power Supply Circuit
B 82300 50800 11500 9400 3 0 0 0 -1 -1 0 -1 -1 -1 -1 -1
T 82400 59900 9 10 1 0 0 0 1
Servo Circuit
N 70000 58700 47700 58700 4
N 70000 58400 48100 58400 4
N 70000 58100 65800 58100 4
N 48500 59300 65800 59300 4
N 70000 57800 65000 57800 4
N 65800 61000 47100 61000 4
N 55000 56600 70000 56600 4
N 58400 56300 70000 56300 4
N 72600 58100 75200 58100 4
N 72900 57500 72900 65800 4
N 70000 56900 67500 56900 4
N 70000 57200 66800 57200 4
N 63500 57800 64100 57800 4
N 74100 65800 74100 67100 4
N 73500 59900 72600 59900 4
N 72600 60200 73200 60200 4
C 91300 64800 1 90 0 connector3-1.sym
{
T 90400 66600 5 10 0 0 90 0 1
device=CONNECTOR_3
T 90200 64800 5 10 1 1 90 0 1
refdes=PWR_CONN
T 91300 64800 5 10 1 1 0 0 1
footprint=100-3-1
}
C 90900 66500 1 0 0 5V-plus-1.sym
N 90500 67200 90500 66500 4
N 90800 67200 90800 66500 4
N 70000 57500 69700 57500 4
N 72600 57500 72900 57500 4
N 72600 61000 72600 60500 4
C 73400 57900 1 90 1 gnd-1.sym
N 72600 57800 73100 57800 4
N 86600 57200 86600 58100 4
N 87100 56700 83200 56700 4
N 83200 56700 83200 56600 4
N 76400 58100 76400 57900 4
N 76100 58100 76400 58100 4
N 72600 56300 83200 56300 4
N 83200 56300 83200 53900 4
N 83200 53900 86600 53900 4
N 86600 53900 86600 54900 4
N 72600 56000 82900 56000 4
N 82900 56000 82900 53700 4
N 72600 55700 82600 55700 4
N 82600 55700 82600 53500 4
B 69300 63500 16700 6500 3 0 0 0 -1 -1 0 -1 -1 -1 -1 -1
T 69600 69300 9 10 1 0 0 0 1
Inputs
N 69500 53400 69500 54800 4
N 69500 54800 70000 54800 4
N 70000 55100 69200 55100 4
N 70000 55400 68900 55400 4
N 70000 55700 68600 55700 4
N 68600 55700 68600 54000 4
N 70000 56000 68300 56000 4
N 68300 56000 68300 53700 4
N 72600 54800 72600 52900 4
N 70000 59900 67400 59900 4
N 69000 59000 69000 62200 4
N 69800 58400 69800 62200 4
N 70000 60200 67800 60200 4
N 69400 58700 69400 62200 4
N 70000 59600 67000 59600 4
N 68600 59300 68600 62200 4
N 70000 59300 68600 59300 4
N 68200 60500 68200 62200 4
N 67800 60200 67800 62200 4
N 67400 59900 67400 62200 4
N 67000 59600 67000 62200 4
N 79900 54000 68600 54000 4
N 70200 61000 70200 62200 4
N 70200 61000 72600 61000 4
N 73800 59600 72600 59600 4
N 72600 59300 74700 59300 4
N 73200 61300 70600 61300 4
N 70600 61300 70600 62200 4
N 71000 61600 73500 61600 4
N 73500 61600 73500 59900 4
N 77000 59000 72600 59000 4
N 66600 57800 66600 62200 4
C 66100 61900 1 0 0 gnd-1.sym
N 65800 61000 66600 61000 4
N 72600 58700 75800 58700 4
N 73800 59600 73800 61900 4
N 73800 61900 71400 61900 4
N 68300 53700 78200 53700 4
N 78200 53700 78200 67100 4
C 77400 68800 1 270 0 connector3-1.sym
{
T 77400 68800 5 10 0 1 0 0 1
footprint=100-3-1
T 77500 68900 5 10 1 1 0 0 1
refdes=SWITCH_3
}
C 77800 66500 1 0 0 gnd-1.sym
N 77900 67100 77900 66800 4
C 77800 66800 1 180 0 5V-plus-1.sym
N 77600 67100 77600 66800 4
N 72600 55100 73000 55100 4
N 73000 55100 73000 52900 4
N 72600 55400 73400 55400 4
N 73400 55400 73400 52900 4
N 72600 58400 74100 58400 4
N 74700 59300 74700 62200 4
N 74700 62200 71800 62200 4
N 71400 61900 71400 62200 4
N 71000 61600 71000 62200 4
U 57400 50100 57400 40200 10 0
U 57400 40200 71700 40200 10 0
U 71700 40200 71700 50400 10 0
U 71700 50400 57400 50400 10 0
U 57400 50400 57400 50100 10 0
T 57600 50100 9 10 1 0 0 0 1
Power output (i.e. relays)
C 91900 68800 1 270 0 jumper-1.sym
{
T 92400 68500 5 8 0 0 270 0 1
device=JUMPER
T 92400 68500 5 10 1 1 270 0 1
refdes=J7
T 91900 68800 5 10 0 1 0 0 1
footprint=JUMPER2_1
}
T 92000 68900 9 6 1 0 0 0 1
Settings for +5V source
C 73800 52900 1 90 1 connector5-2.sym
{
T 71300 52200 5 10 1 1 90 0 1
refdes=CONN8
T 71350 52600 5 10 0 0 90 6 1
device=CONNECTOR_5
T 71150 52600 5 10 0 0 90 6 1
footprint=JUMPER5
}
C 72300 62200 1 90 0 connector15-2.sym
{
T 65700 62900 5 10 1 1 90 6 1
refdes=CONN7
T 65750 62500 5 10 0 0 90 0 1
device=CONNECTOR_15
T 65550 62500 5 10 0 0 90 0 1
footprint=JUMPER15
}
C 71900 53200 1 180 0 gnd-1.sym
N 69500 53400 72200 53400 4
N 72200 53400 72200 52900 4
N 73200 61300 73200 60200 4
N 68200 60500 70000 60500 4
C 67900 49100 1 90 1 connector3-2.sym
{
T 66100 48500 5 10 1 1 0 0 1
refdes=J8
T 66250 48800 5 10 0 0 270 2 1
device=CONNECTOR_3
T 66050 48800 5 10 0 0 270 2 1
footprint=JUMPER3
T 67800 49000 5 10 1 1 0 0 1
comment=Output voltage selection jumper
}
N 67100 49700 67100 49100 4
C 66500 49100 1 0 0 12V-plus-1.sym
C 67300 49100 1 0 0 5V-plus-1.sym
C 99400 66700 1 90 0 connector2-1.sym
{
T 98400 66900 5 10 0 0 90 0 1
device=CONNECTOR_2
T 98600 66700 5 10 1 1 90 0 1
refdes=MAIN_PWR
T 99400 66700 5 10 1 1 0 0 1
footprint=pwrjack21
}
C 99300 68700 1 180 0 gnd-1.sym
C 98700 68700 1 0 0 12V-plus-1.sym
N 98900 68700 98900 68400 4
C 95000 67800 1 90 0 capacitor-1.sym
{
T 94700 67900 5 10 1 1 90 0 1
refdes=C2
T 94100 68000 5 10 0 0 90 0 1
symversion=0.1
T 95200 68000 5 10 1 1 90 0 1
value=100 nF
T 95000 67800 5 10 0 1 180 0 1
footprint=ACY100_1
}
N 94800 67800 94800 67200 4
N 94800 67200 93700 67200 4
C 66900 49700 1 0 0 vcc-1.sym
{
T 67200 49700 5 10 1 1 0 0 1
netname=Vout
}
C 60900 48900 1 0 0 vcc-1.sym
{
T 61200 48900 5 10 1 1 0 0 1
netname=Vout
}
C 60900 45000 1 0 0 vcc-1.sym
{
T 61200 45000 5 10 1 1 0 0 1
netname=Vout
}
